Referencia;Modelo;"Prov. Catalogo";"Prov. Material";Color;"Prov. Color";"Un. Compradas";"Un. Vendidas";"Sellout %";"Uds. Restantes"
545-000106;"Sudadera/Dessuadora Off-White";OMBA003F18192;1030130;01;"@WHITE BLUE\";50,00;23;46,00;27
545-000107;"Sudadera/Dessuadora Off-White";OMBB029F18192;1031030;01;"@BLACK BLUE\";50,00;30;60,00;20
553-001360;"Camiseta/Samarreta Off-White";OMAA027F181185;1030130;01;"@WHITE BLUE\";50,00;6;12,00;44
553-001360;"Camiseta/Samarreta Off-White";OMAA027F181185;1030130;02;"@BLACK BLUE\";50,00;8;16,00;42
711-001872;"Sudadera/Dessuadora Off-White";OWBA0126F18192;1030130;01;"@WHITE BLUE\";50,00;9;18,00;41
782-000903;"Camiseta/Samarreta Off-White";OWAA039F18185;1021030;01;"@BLACK BLUE\";30,00;5;16,67;25
782-000904;"Camiseta/Samarreta Off-White";OWAA039F18185;1030130;01;"@WHITE BLUE\";50,00;12;24,00;38
782-000904;"Camiseta/Samarreta Off-White";OWAA039F18185;1030130;02;"@BLACK BLUE\";50,00;10;20,00;40
;;;;;;380,00;103,00;27,11;277,00
